numpy>=1.9.2
SimpleITK>=0.9.1
PyWavelets>=0.4.0
pykwalify>=1.6.0
six>=1.10.0

nose>=1.3.7
nose-parameterized>=0.5.0
tqdm>=4.7.1
sphinx>=1.4

rdflib>=4.2.2
scikit-image>=0.12.3
pydicom>=1.0.2
xnat>=0.2.2
pandas>=0.19.2
simplejson>=3.16.0
pathlib>=1.0.1

